<?xml version="1.0" encoding="UTF-8"?>
<svg xmlns="http://www.w3.org/2000/svg" xmlns:xlink="http://www.w3.org/1999/xlink" width="841.89pt" height="595.28pt" viewBox="0 0 841.89 595.28" version="1.1">
<g id="surface1">
<path style=" stroke:none;fill-rule:nonzero;fill:rgb(14.898682%,14.898682%,14.898682%);fill-opacity:1;" d="M 244.929688 462.625 C 224.175781 462.625 207.289063 445.738281 207.289063 424.980469 C 207.289063 404.226563 224.175781 387.339844 244.929688 387.339844 C 265.6875 387.339844 282.574219 404.226563 282.574219 424.980469 C 282.574219 445.738281 265.6875 462.625 244.929688 462.625 M 244.929688 372.125 C 215.785156 372.125 192.074219 395.835938 192.074219 424.980469 C 192.074219 442.625 199.488281 458.347656 213.515625 470.445313 C 226.652344 481.777344 245.488281 489.585938 267.238281 493.207031 C 270.347656 491.496094 276.230469 485.734375 278.105469 481.785156 C 262.078125 479.019531 254.730469 476.277344 254.730469 476.277344 C 254.730469 476.277344 256.78125 476.191406 260.898438 475.039063 C 282.308594 469.03125 298 447.890625 297.792969 424.980469 C 297.523438 395.835938 274.078125 372.125 244.929688 372.125 "/>
<path style=" stroke:none;fill-rule:nonzero;fill:rgb(14.898682%,14.898682%,14.898682%);fill-opacity:1;" d="M 640.328125 460.09375 L 640.328125 462.703125 L 641.90625 462.703125 C 642.359375 462.703125 642.722656 462.582031 642.984375 462.34375 C 643.25 462.101563 643.378906 461.789063 643.378906 461.402344 C 643.378906 460.53125 642.890625 460.09375 641.90625 460.09375 Z M 644.957031 461.332031 C 644.957031 461.996094 644.78125 462.5625 644.425781 463.03125 C 644.070313 463.496094 643.585938 463.824219 642.96875 464.007813 L 645.265625 467.613281 L 643.480469 467.613281 L 641.390625 464.113281 L 640.328125 464.113281 L 640.328125 467.613281 L 638.816406 467.613281 L 638.816406 458.6875 L 642.109375 458.6875 C 642.957031 458.6875 643.640625 458.929688 644.171875 459.410156 C 644.695313 459.890625 644.957031 460.53125 644.957031 461.332031 M 636.929688 468.160156 C 638.121094 469.371094 639.652344 469.976563 641.527344 469.976563 C 643.402344 469.976563 644.933594 469.371094 646.125 468.160156 C 647.3125 466.949219 647.90625 465.367188 647.90625 463.425781 C 647.90625 461.480469 647.3125 459.910156 646.125 458.707031 C 644.933594 457.503906 643.402344 456.90625 641.527344 456.90625 C 639.652344 456.90625 638.121094 457.503906 636.929688 458.707031 C 635.738281 459.910156 635.144531 461.480469 635.144531 463.425781 C 635.144531 465.367188 635.738281 466.949219 636.929688 468.160156 M 635.765625 457.59375 C 637.273438 456.082031 639.191406 455.328125 641.527344 455.328125 C 643.859375 455.328125 645.78125 456.082031 647.292969 457.59375 C 648.800781 459.101563 649.554688 461.046875 649.554688 463.425781 C 649.554688 465.824219 648.800781 467.78125 647.292969 469.292969 C 645.78125 470.800781 643.859375 471.554688 641.527344 471.554688 C 639.191406 471.554688 637.273438 470.800781 635.765625 469.292969 C 634.253906 467.78125 633.5 465.824219 633.5 463.425781 C 633.5 461.046875 634.253906 459.101563 635.765625 457.59375 "/>
<path style=" stroke:none;fill-rule:nonzero;fill:rgb(14.898682%,14.898682%,14.898682%);fill-opacity:1;" d="M 537.25 449.269531 L 519.394531 401.894531 L 503.488281 401.894531 L 529.539063 468.019531 C 529.539063 468.019531 518.015625 495.414063 518.019531 495.414063 C 525.601563 495.414063 533.894531 494.875 537.140625 486.886719 C 544.75 468.148438 571.257813 401.894531 571.257813 401.894531 L 555.34375 401.894531 Z M 537.25 449.269531 "/>
<path style=" stroke:none;fill-rule:nonzero;fill:rgb(14.898682%,14.898682%,14.898682%);fill-opacity:1;" d="M 477.578125 472.898438 C 477.578125 472.898438 492.34375 472.628906 492.34375 462.609375 L 492.34375 372.617188 L 477.578125 372.617188 Z M 477.578125 472.898438 "/>
<path style=" stroke:none;fill-rule:nonzero;fill:rgb(14.898682%,14.898682%,14.898682%);fill-opacity:1;" d="M 424.835938 459.046875 C 415.910156 459.046875 402.554688 453.085938 402.351563 436.675781 L 402.351563 436.558594 C 402.351563 423.597656 411.910156 413.824219 424.589844 413.824219 C 434.0625 413.824219 441.757813 418.769531 445.199219 427.101563 C 446.550781 429.917969 447.199219 433.21875 447.078125 436.648438 C 446.953125 440.128906 446.175781 443.453125 444.8125 446.292969 C 441.335938 454.277344 433.867188 459.046875 424.835938 459.046875 M 446.953125 411.222656 C 442.84375 405.488281 434.8125 399.921875 422.984375 399.921875 C 402.804688 399.921875 387.582031 415.617188 387.582031 436.4375 C 387.582031 446.164063 390.910156 455.203125 396.949219 461.890625 C 403.484375 469.125 412.488281 472.949219 422.984375 472.949219 C 433.15625 472.949219 441.867188 468.796875 446.953125 461.691406 L 446.953125 472.898438 C 446.953125 472.898438 461.722656 472.667969 461.722656 462.617188 L 461.722656 401.898438 L 446.953125 401.898438 Z M 446.953125 411.222656 "/>
<path style=" stroke:none;fill-rule:nonzero;fill:rgb(14.898682%,14.898682%,14.898682%);fill-opacity:1;" d="M 360.679688 440.382813 C 360.679688 452.308594 354.488281 458.9375 343.253906 459.046875 C 331.859375 459.046875 326.320313 452.578125 326.320313 439.273438 L 326.320313 401.898438 L 311.554688 401.898438 L 311.554688 442.238281 C 311.554688 448.058594 312.535156 456.363281 317.214844 462.859375 C 321.992188 469.496094 329.546875 472.890625 339.660156 472.949219 C 339.800781 472.949219 339.941406 472.949219 340.078125 472.949219 C 352.175781 472.949219 358.40625 467.464844 361.417969 463.203125 L 361.417969 472.902344 C 361.417969 472.902344 375.445313 472.660156 375.445313 463.109375 L 375.445313 401.898438 L 360.679688 401.898438 Z M 360.679688 440.382813 "/>
<path style=" stroke:none;fill-rule:nonzero;fill:rgb(14.898682%,14.898682%,14.898682%);fill-opacity:1;" d="M 606.65625 429.957031 C 598.980469 426.640625 593.402344 423.769531 593.503906 419.320313 C 593.566406 416.378906 597.441406 413.5625 601.476563 413.699219 C 605.792969 413.847656 608.992188 416.824219 610.773438 419.203125 C 610.773438 419.203125 618.84375 412.308594 619.816406 411.570313 C 615.640625 404.652344 608.542969 400.757813 600.582031 400.582031 C 589.226563 400.332031 579.789063 409.238281 579.542969 420.4375 C 579.328125 430.132813 585.007813 434.136719 592.460938 438.363281 L 604.71875 445.257813 C 607.550781 447.234375 608.882813 448.710938 608.816406 451.753906 C 608.714844 456.527344 604.722656 459.617188 599.558594 459.921875 C 595.757813 460.148438 592.636719 457.949219 589.679688 454.855469 C 583.925781 448.832031 575.089844 451.726563 572.386719 452.601563 C 578.007813 465.523438 588.640625 473.050781 599.261719 473.285156 C 612.640625 473.578125 623.339844 463.703125 623.628906 450.804688 C 623.761719 444.597656 621.042969 436.882813 606.65625 429.957031 "/>
<path style=" stroke:none;fill-rule:nonzero;fill:rgb(92.89856%,17.999268%,14.898682%);fill-opacity:1;" d="M 417.597656 102.121094 C 481.726563 102.121094 513.96875 136.433594 513.96875 136.433594 C 513.96875 136.433594 517.65625 161.828125 515.300781 212.96875 C 511.746094 290.21875 417.621094 336.605469 417.613281 336.613281 C 417.605469 336.617188 323.480469 290.21875 319.925781 212.96875 C 317.574219 161.828125 321.257813 136.433594 321.257813 136.433594 C 321.257813 136.433594 353.472656 102.121094 417.597656 102.121094 "/>
<path style=" stroke:none;fill-rule:nonzero;fill:rgb(100%,100%,100%);fill-opacity:1;" d="M 369.480469 203.667969 C 369.480469 176.355469 391.074219 154.132813 417.613281 154.132813 C 444.175781 154.132813 465.789063 175.742188 465.789063 202.308594 C 465.789063 223.511719 447.558594 240.957031 433.507813 249.921875 C 438.960938 253.03125 450.988281 256.296875 462.503906 257.355469 C 479.324219 244.339844 489.578125 224.21875 489.578125 202.308594 C 489.578125 162.625 457.292969 130.339844 417.613281 130.339844 C 377.933594 130.339844 345.648438 162.625 345.648438 202.308594 C 345.648438 226.269531 355.625 247.5625 374.503906 263.875 C 392.15625 279.128906 417.976563 289.3125 447.371094 294.128906 C 453.742188 290.609375 464.632813 280.21875 468.714844 274.140625 C 444.167969 270.980469 420.929688 264.992188 405.355469 256.820313 C 381.550781 244.335938 369.480469 226.449219 369.480469 203.667969 "/>
</g>
</svg>
